%YAML 1.1
%TAG !u! tag:unity3d.com,2011:
--- !u!114 &11400000
MonoBehaviour:
  m_ObjectHideFlags: 0
  m_CorrespondingSourceObject: {fileID: 0}
  m_PrefabInstance: {fileID: 0}
  m_PrefabAsset: {fileID: 0}
  m_GameObject: {fileID: 0}
  m_Enabled: 1
  m_EditorHideFlags: 0
  m_Script: {fileID: 11500000, guid: abc0e939b786249b685ed4bfe58e59d9, type: 3}
  m_Name: Phone
  m_EditorClassIdentifier: 
  title: Phone
  icon: {fileID: 21300000, guid: 2677171da87ec13438d17fbee36b9d6a, type: 3}
  price: 2
  currencyType: 3
  buyingPerCurrency: 1
  quantityPerPrice: 1
